%YAML 1.1
%TAG !u! tag:unity3d.com,2011:
--- !u!21 &2100000
Material:
  serializedVersion: 6
  m_ObjectHideFlags: 0
  m_PrefabParentObject: {fileID: 0}
  m_PrefabInternal: {fileID: 0}
  m_Name: Vehicle_Shader_WIP01
  m_Shader: {fileID: 4800000, guid: 62bcbeb83a65bc640a362d6bf12d437d, type: 3}
  m_ShaderKeywords: 
  m_LightmapFlags: 4
  m_EnableInstancingVariants: 0
  m_DoubleSidedGI: 0
  m_CustomRenderQueue: -1
  stringTagMap: {}
  disabledShaderPasses: []
  m_SavedProperties:
    serializedVersion: 3
    m_TexEnvs:
    - _CausticsTex:
        m_Texture: {fileID: 2800000, guid: 2398fa65f54634a419b517934f093f63, type: 3}
        m_Scale: {x: 1, y: 1}
        m_Offset: {x: 4.71, y: 0}
    - _EmissionTex:
        m_Texture: {fileID: 0}
        m_Scale: {x: 1, y: 1}
        m_Offset: {x: 0, y: 0}
    - _MainTex:
        m_Texture: {fileID: 0}
        m_Scale: {x: 1, y: 1}
        m_Offset: {x: 0, y: 0}
    - _NormalTex:
        m_Texture: {fileID: 0}
        m_Scale: {x: 1, y: 1}
        m_Offset: {x: 0, y: 0}
    - _SmoothnessTex:
        m_Texture: {fileID: 0}
        m_Scale: {x: 1, y: 1}
        m_Offset: {x: 0, y: 0}
    - _SpecularTex:
        m_Texture: {fileID: 0}
        m_Scale: {x: 1, y: 1}
        m_Offset: {x: 0, y: 0}
    m_Floats:
    - _CausticsFactor: 0.25
    - _CausticsScale: 10
    - _EmissionIntensity: 0
    m_Colors:
    - _AirFogColorDensity: {r: 0.6020761, g: 0.6945001, b: 0.85294116, a: 0.019607844}
    - _CausticsDrift: {r: 1, g: 1, b: 1, a: 1}
    - _CausticsFadeDistance: {r: 15, g: 100, b: 0, a: 0}
    - _Color: {r: 1, g: 1, b: 1, a: 1}
    - _WaterFogColorDensity: {r: 0.037954155, g: 0.17215578, b: 0.19117647, a: 0.216}
